{
  "data": [
    {
      "patient_message_id": 245641,
      "patient_message_is_read": 1,
      "created_at": "2022-01-18T04:22:57.000Z",
      "message_template": {
        "message_template_text": "二回測定の間に一分間休憩してください。",
        "message_template_key": "MS1"
      }
    },
    {
      "patient_message_id": 245687,
      "patient_message_is_read": 1,
      "created_at": "2022-01-18T08:22:57.000Z",
      "message_template": {
        "message_template_text": "新しい一ヶ月がもうすぐ来る、毎月1日から7日の間、毎日朝と晩に二回血圧測定してね！\n二回測定の間に一分間休憩してください。",
        "message_template_key": "MS2"
      }
    },
    {
      "patient_message_id": 245733,
      "patient_message_is_read": 1,
      "created_at": "2022-01-18T14:22:57.000Z",
      "message_template": {
        "message_template_text": "もう飲みましたか？",
        "message_template_key": "MS3"
      }
    },
    {
      "patient_message_id": 245687,
      "patient_message_is_read": 1,
      "created_at": "2022-01-19T08:22:57.000Z",
      "message_template": {
        "message_template_text": "新しい一ヶ月がもうすぐ来る、毎月1日から7日の間、毎日朝と晩に二回血圧測定してね！\n二回測定の間に一分間休憩してください。",
        "message_template_key": "MS2"
      }
    },
    {
      "patient_message_id": 245733,
      "patient_message_is_read": 1,
      "created_at": "2022-01-19T14:22:57.000Z",
      "message_template": {
        "message_template_text": "もう飲みましたか？",
        "message_template_key": "MS3"
      }
    },
    {
      "patient_message_id": 245733,
      "patient_message_is_read": 0,
      "created_at": "2022-01-20T14:22:57.000Z",
      "message_template": {
        "message_template_text": "もう飲みましたか？",
        "message_template_key": "MS3"
      }
    },
    {
      "patient_message_id": 245641,
      "patient_message_is_read": 0,
      "created_at": "2022-01-21T04:22:57.000Z",
      "message_template": {
        "message_template_text": "二回測定の間に一分間休憩してください。",
        "message_template_key": "MS1"
      }
    }
  ],
  "current_page": 1,
  "last_page": 460,
  "per_page": 3,
  "from": 1,
  "to": 3,
  "total": 1380,
  "total_unread": 1380
}
