{
  "data_user_list": {
    "data": [
      {
        "hcp_hospital": "Hospital 1",
        "hcp_cognito_username": "1234567890123456789012345678901",
        "hcp_full_name": "Tran Banh",
        "hcp_cognito_phone": "+1231231231"
      },
      {
        "hcp_hospital": "Hospital 2",
        "hcp_cognito_username": "1234567890123456789012345678901",
        "hcp_full_name": "Tran Banh",
        "hcp_cognito_phone": "+1231231231"
      },
      {
        "hcp_hospital": "Hospital 3",
        "hcp_cognito_username": "1234567890123456789012345678901",
        "hcp_full_name": "Tran Banh",
        "hcp_cognito_phone": "+1231231231"
      },
      {
        "hcp_hospital": "Hospital 4",
        "hcp_cognito_username": "1234567890123456789012345678901",
        "hcp_full_name": "Tran Banh",
        "hcp_cognito_phone": ""
      },
      {
        "hcp_hospital": "Hospital 5",
        "hcp_cognito_username": "1234567890123456789012345678901",
        "hcp_full_name": "Tran Banh",
        "hcp_cognito_phone": "+1231231231"
      },
      {
        "hcp_hospital": "Hospital 6",
        "hcp_cognito_username": "1234567890123456789012345678901",
        "hcp_full_name": "Tran Banh",
        "hcp_cognito_phone": "+1231231231"
      },
      {
        "hcp_hospital": "Hospital 7",
        "hcp_cognito_username": "1234567890123456789012345678901",
        "hcp_full_name": "Tran Banh",
        "hcp_cognito_phone": "+1231231231"
      },
      {
        "hcp_hospital": "Hospital 8",
        "hcp_cognito_username": "1234567890123456789012345678901",
        "hcp_full_name": "Tran Banh",
        "hcp_cognito_phone": "+1231231231"
      }
    ],
    "current_page": 1,
    "last_page": 3,
    "per_page": 30,
    "total": 61
  },
  "hospital_list": {
    "data": [
      {
        "hospital_id": 1,
        "hospital_code": "KP01",
        "hospital_name": "Hospital 1"
      },
      {
        "hospital_id": 2,
        "hospital_code": "TEST01",
        "hospital_name": "Hospital 2"
      },
      {
        "hospital_id": 3,
        "hospital_code": "TEST02",
        "hospital_name": "Hospital 3"
      }
    ],
    "current_page": 1,
    "last_page": 3,
    "per_page": 30,
    "total": 61
  }
}
